[
    {
        "defaultValue": "c3po",
        "name": "c3po-app-name-prefix",
        "description": "The prefix used to identified C3PO devices/nodes forming the network",
        "value": "c3po"
    },
    {
        "defaultValue": "600000",
        "name": "log-transfer-period",
        "description": "Period of file transfer (ms).",
        "value": "600000"
    },
    {
        "defaultValue": "",
        "name": "log-last-file-transfered",
        "description": "The last log file sent.",
        "value": ""
    },
    {
        "defaultValue": "false",
        "name": "log-transfer-enabled",
        "description": "True if the logs must be transfered on log sink nodes, and false otherwise.",
        "value": "true"
    },
    {
        "defaultValue": "",
        "name": "log-sink-nodes",
        "description": "The sink nodes used to collect logs.",
        "value": "C3PO00"
    },
    {
        "defaultValue": "1000",
        "name": "location-logger-period",
        "description": "The period (in ms) of the location logger to collect location information",
        "value": "1000"
    },
    {
        "defaultValue": "1.0",
        "name": "location-logger-distance",
        "description": "The distance between the different location information (in meters)",
        "value": "1.0"
    },
    {
        "defaultValue": "/tmp/fr.c3po/location",
        "name": "location-logger-dir",
        "description": "True to enable the location logger, and false otherwise",
        "value": "/sdcard/fr.c3po/location"
    },
    {
        "defaultValue": "false",
        "name": "location-logger-enabled",
        "description": "True to enable the location logger, and false otherwise",
        "value": "false"
    },
    {
        "defaultValue": "false",
        "name": "location-enabled",
        "description": "true if the location tracking must be activated, and false otherwise",
        "value": "false"
    },
    {
        "defaultValue": "STATIONARY",
        "name": "location-modes",
        "description": "Location methods that must be activated in the C3PO platform. Supported methods are GPS, NETWORK, STATIONARY and OPPORTUNISTIC_NETWORK",
        "value": "STATIONARY"
    },
    {
        "defaultValue": "2947",
        "name": "location-gpsd-port",
        "description": "the port number of GPSD",
        "value": "2947"
    },
    {
        "defaultValue": "localhost",
        "name": "location-gpsd-address",
        "description": "the IP address or name number of the devices running GPSD",
        "value": "localhost"
    },
    {
        "defaultValue": "0.0,0.0,0.0",
        "name": "location-stationary-gps-coordinates",
        "description": "The coordinate of the stationary local node.",
        "value": "47.64504,2.74852,0.0"
    },
    {
        "defaultValue": "127.0.0.1",
        "name": "console-ip-address",
        "description": "C3PO console IP Address for telnet access",
        "value": "127.0.0.1"
    },
    {
        "defaultValue": "9000",
        "name": "console-port",
        "description": "C3PO console port",
        "value": "9000"
    },
    {
        "defaultValue": "false",
        "name": "console-enabled",
        "description": "true if the administration console must be enabled, and false otherwise.",
        "value": "true"
    },
    {
        "defaultValue": "telnet",
        "name": "console-mode",
        "description": "C3PO Console mode: none, local, telnet",
        "value": "telnet"
    },
    {
        "defaultValue": "false",
        "name": "eventman-enabled",
        "description": "true if the event manager of the C3PO framework is enabled and false otherwise.",
        "value": "false"
    },
    {
        "defaultValue": "wlan0",
        "name": "netman-infrastructure-local-net-interface",
        "description": "The network interface on which the C3PO hub must listen to",
        "value": "wlan0"
    },
    {
        "defaultValue": "",
        "name": "netman-infrastructure-remote-net-interface",
        "description": "The network interface used to establish a connection to the remote host running the C3PO Hub (rmnet for the Android application, and eth0 or wlan1 for the access point for instance, or empty if the access point is standalone)",
        "value": ""
    },
    {
        "defaultValue": "C3PO00:casa-irisa.univ-ubs.fr",
        "name": "netman-infrastructure-remote-hosts",
        "description": "The addresses (or the names) of the remote hosts hosting the C3PO Hub",
        "value": ""
    },
    {
        "defaultValue": "0",
        "name": "netman-bluetooth-visibility-duration",
        "description": "The Bluetooth visibility duration in seconds (default 5 minutes)",
        "value": "0"
    },
    {
        "defaultValue": "1200000",
        "name": "oppcom-message-ttl",
        "description": "Dur\u00e9e de vie des messages (20mn)",
        "value": "-1"
    },
    {
        "defaultValue": "5120000",
        "name": "oppcom-cache-capacity",
        "description": "Cache capacity (en octets)",
        "value": "5120000"
    },
    {
        "defaultValue": "9002",
        "name": "netman-communication-port",
        "description": "The port number that must be used by C3PO.",
        "value": "9002"
    },
    {
        "defaultValue": "FIFO",
        "name": "oppcom-cache-policy",
        "description": "Politique de gestion du cache de messages",
        "value": "PRIORITY"
    },
    {
        "defaultValue": "20000",
        "name": "netman-wifi-ap-start-delay",
        "description": "The delay after which a SoftAP is created if no wifi connections have been established",
        "value": "20000"
    },
    {
        "defaultValue": "fr.c3po.router.strategies.flooding.SimpleFloodingForwardingStrategy",
        "name": "oppcom-forwarding-strategy",
        "description": "The Java class that implements the forwarding strategy",
        "value": "fr.c3po.router.strategies.gossiping.GossipingStrategy"
    },
    {
        "defaultValue": "5c3Po6",
        "name": "netman-network-id",
        "description": "The network ID.",
        "value": "asawoo"
    },
    {
        "defaultValue": "false",
        "name": "netman-wifi-use-configured-networks",
        "description": "Use the Wi-Fi configured networks in the C3PO application",
        "value": "true"
    },
    {
        "defaultValue": "C3PO00",
        "name": "network-node-id",
        "description": "ID of the local node",
        "value": "C3PO01"
    },
    {
        "defaultValue": "mcast",
        "name": "network-group-ids",
        "description": "Comma-separated list the multicast/anycast groups IDs subscribed by this node",
        "value": "demo"
    },
    {
        "defaultValue": "true",
        "name": "oppcom-node-relay",
        "description": "true if the local node act as a relay, and false otherwise",
        "value": "true"
    },
    {
        "defaultValue": "120000",
        "name": "netman-wifi-ap-connection-delay",
        "description": "The delay after which a SoftAP switch to the client mode because it has no connections (default 2mn)",
        "value": "120000"
    },
    {
        "defaultValue": "120000",
        "name": "netman-topology-manager-period",
        "description": "Periode de mise \u00e0 jour de la topologie du r\u00e9seau. Si 0, pas de mise \u00e0 jour periodique. 2mn par d\u00e9faut",
        "value": "120000"
    },
    {
        "defaultValue": "console",
        "name": "logman-log-mode",
        "description": "Logging mode (none, console or file)",
        "value": "file"
    },
    {
        "defaultValue": "10",
        "name": "oppcom-message-nbhops",
        "description": "Nombre de sauts",
        "value": "10"
    },
    {
        "defaultValue": "45000",
        "name": "netman-wifi-p2p-scan-period",
        "description": "The Wifi P2P scanning period needed for neighbor device discovery (in milliseconds)",
        "value": "30000"
    },
    {
        "defaultValue": "512",
        "name": "messages-max-content-size",
        "description": "Taille maximum du contenu des messages (en octets)",
        "value": "512"
    },
    {
        "defaultValue": "verbose",
        "name": "logman-log-level",
        "description": "Logging level (verbose, debug, info, warning, error)",
        "value": "verbose"
    },
    {
        "defaultValue": "true",
        "name": "netman-wifi-ap-security",
        "description": "False if the access point is opened, and true otherwise.",
        "value": "true"
    },
    {
        "defaultValue": "10000",
        "name": "netman-wifi-scan-period",
        "description": "The Wifi scanning period needed for neighbor device discovery (in milliseconds)",
        "value": "10000"
    },
    {
        "defaultValue": "60000",
        "name": "netman-bluetooth-scan-period",
        "description": "The Bluetooth scanning period needed for neighbor device discovery (in milliseconds)",
        "value": "30000"
    },
    {
        "defaultValue": "",
        "name": "netman-connectivity-user-choice",
        "description": "The connectivity modes selected by the user.",
        "value": "INFRASTRUCTURE"
    },
    {
        "name": "user",
        "value": "{}",
        "defaultValue": "{}",
        "description": "User account informations"
    }
]
